{
  "edges": [
    {
      "id": "e0",
      "source": "n0",
      "target": "n1",
      "color": "black"
    },
    {
      "id": "e1",
      "source": "n1",
      "target": "n2",
      "color": "black"
    },
    {
      "id": "e2",
      "source": "n2",
      "target": "n3",
      "color": "black"
    },
    {
      "id": "e3",
      "source": "n3",
      "target": "n4",
      "color": "black"
    },
    {
      "id": "e4",
      "source": "n4",
      "target": "n5",
      "color": "black"
    },
    {
      "id": "e5",
      "source": "n5",
      "target": "n6",
      "color": "black"
    },
    {
      "id": "e6",
      "source": "n6",
      "target": "n7",
      "color": "black"
    },
    {
      "id": "e7",
      "source": "n7",
      "target": "n8",
      "color": "black"
    },
    {
      "id": "e8",
      "source": "n8",
      "target": "n1",
      "color": "black"
    }
  ],
  "nodes": [
    {
      "id": "n0",
      "label": "Python",
      "type": "programming",
      "x": 220,
      "y": 160,
      "color": "#3572A5",
      "size": 5
    },
    {
      "id": "n1",
      "label": "JavaScript",
      "type": "programming",
      "x": 310,
      "y": 450,
      "color": "#f1e05a",
      "size": 5
    },
    {
      "id": "n2",
      "label": "Ruby",
      "type": "programming",
      "x": 550,
      "y": 120,
      "color": "#701516",
      "size": 5
    },
    {
      "id": "n3",
      "label": "Java",
      "type": "programming",
      "x": 640,
      "y": 480,
      "color": "#b07219",
      "size": 5
    },
    {
      "id": "n4",
      "label": "C++",
      "type": "programming",
      "x": 930,
      "y": 330,
      "color": "#f34b7d",
      "size": 5
    },
    {
      "id": "n5",
      "label": "Swift",
      "type": "programming",
      "x": 710,
      "y": 580,
      "color": "#ffac45",
      "size": 5
    },
    {
      "id": "n6",
      "label": "Go",
      "type": "programming",
      "x": 770,
      "y": 210,
      "color": "#375eab",
      "size": 5
    },
    {
      "id": "n7",
      "label": "PHP",
      "type": "programming",
      "x": 460,
      "y": 800,
      "color": "#4F5D95",
      "size": 5
    },
    {
      "id": "n8",
      "label": "Scala",
      "type": "programming",
      "x": 390,
      "y": 760,
      "color": "#c22d40",
      "size": 5
    }
  ]
}
